{"success":true,"data":[{"id":"8b0ff611-849c-47dd-acad-4086a8e28ec1","maVuViec":"VV-BTP-TW-20260418-011","tieuDe":"QTHT trying create","trangThai":"DA_TIEP_NHAN","kenhTiepNhan":"TRUC_TIEP","uuTien":3,"mucDoCanhBao":"BINH_THUONG","deadline":"2026-05-02T07:27:07.611Z","ngayTiepNhan":"2026-04-18T07:27:07.611Z","ngayTao":"2026-04-18T07:27:07.612Z","donViId":"00000000-0000-4000-8000-000000000001","tenLinhVuc":"Dân sự","tenDoanhNghiep":null,"tenNguoiHoTro":null},{"id":"3a73d70a-db21-4304-982d-8b6ca4cb07b2","maVuViec":"VV-BTP-TW-20260418-010","tieuDe":"QA VV-011 - Test phân công","trangThai":"DA_TIEP_NHAN","kenhTiepNhan":"TRUC_TIEP","uuTien":3,"mucDoCanhBao":"BINH_THUONG","deadline":"2026-05-02T07:25:24.844Z","ngayTiepNhan":"2026-04-18T07:25:24.844Z","ngayTao":"2026-04-18T07:25:24.844Z","donViId":"00000000-0000-4000-8000-000000000001","tenLinhVuc":"Dân sự","tenDoanhNghiep":null,"tenNguoiHoTro":null},{"id":"b39d60f2-b920-4300-aa66-477b8aedc71a","maVuViec":"VV-BTP-TW-20260418-009","tieuDe":"QA BUG TEST - Missing DN id","trangThai":"DA_PHAN_CONG","kenhTiepNhan":"TRUC_TIEP","uuTien":3,"mucDoCanhBao":"BINH_THUONG","deadline":"2026-05-02T07:23:34.824Z","ngayTiepNhan":"2026-04-18T07:23:34.824Z","ngayTao":"2026-04-18T07:23:34.824Z","donViId":"00000000-0000-4000-8000-000000000001","tenLinhVuc":"Dân sự","tenDoanhNghiep":null,"tenNguoiHoTro":null},{"id":"85de168a-9290-47d2-aef9-e6828d9cc992","maVuViec":"VV-BTP-TW-20260418-008","tieuDe":"Test thiếu DN","trangThai":"YEU_CAU_BO_SUNG","kenhTiepNhan":"TRUC_TIEP","uuTien":3,"mucDoCanhBao":"BINH_THUONG","deadline":"2026-05-02T07:23:20.598Z","ngayTiepNhan":"2026-04-18T07:23:20.598Z","ngayTao":"2026-04-18T07:23:20.599Z","donViId":"00000000-0000-4000-8000-000000000001","tenLinhVuc":"Dân sự","tenDoanhNghiep":null,"tenNguoiHoTro":null},{"id":"6f458379-c991-41a9-8adb-deb41383e271","maVuViec":"VV-BTP-TW-20260418-007","tieuDe":"QA Test VV Round 2 - Tư vấn pháp luật dân sự","trangThai":"TU_CHOI","kenhTiepNhan":"TRUC_TIEP","uuTien":3,"mucDoCanhBao":"BINH_THUONG","deadline":"2026-05-02T07:23:05.005Z","ngayTiepNhan":"2026-04-18T07:23:05.005Z","ngayTao":"2026-04-18T07:23:05.006Z","donViId":"00000000-0000-4000-8000-000000000001","tenLinhVuc":"Dân sự","tenDoanhNghiep":null,"tenNguoiHoTro":null}],"meta":{"page":1,"pageSize":5,"total":16,"totalPages":4}}