{"success":true,"data":[{"id":"881b48e8-bec3-44b2-bfce-c5a3fb2c8307","maHoiDap":"HD-20260416-003","tieuDe":"TEST_HD Câu hỏi batch approve 2","linhVucId":"f29f7d36-8779-47e8-9afe-4e9f4d00d3e6","linhVucTen":"Hành chính","kenhTiepNhan":"TRUC_TIEP","trangThai":"TIEP_NHAN","tenNguoiGui":"Người test 2","nguoiXuLyId":null,"deadline":"2026-05-04T18:05:06.512Z","ngayTiepNhan":"2026-04-16T18:05:06.512Z","mucDoCanhBao":"BINH_THUONG","ngayTao":"2026-04-16T17:25:36.516Z"},{"id":"301e9671-124f-4593-8f33-ba577496b70f","maHoiDap":"HD-20260416-002","tieuDe":"TEST_HD Câu hỏi batch approve 1","linhVucId":"f29f7d36-8779-47e8-9afe-4e9f4d00d3e6","linhVucTen":"Hành chính","kenhTiepNhan":"TRUC_TIEP","trangThai":"MOI","tenNguoiGui":"Người test 1","nguoiXuLyId":null,"deadline":"2026-05-04T17:25:36.422Z","ngayTiepNhan":null,"mucDoCanhBao":"BINH_THUONG","ngayTao":"2026-04-16T17:25:36.426Z"}],"meta":{"page":2,"pageSize":2,"total":8,"totalPages":4}}