{"success":true,"data":[{"id":"8f373901-84ce-4c48-9041-931bc6398ea6","maHoiDap":"HD-20260417-001","tieuDe":"Lao động","linhVucId":"657a625a-1369-4f29-9c4c-cdf70c531c84","linhVucTen":"Đất đai","kenhTiepNhan":"TRUC_TIEP","trangThai":"MOI","tenNguoiGui":null,"nguoiXuLyId":null,"deadline":"2026-05-05T04:35:48.368Z","ngayTiepNhan":null,"mucDoCanhBao":"BINH_THUONG","ngayTao":"2026-04-17T04:35:48.371Z"},{"id":"da61f511-53d5-4316-b1e1-902c446521ba","maHoiDap":"HD-20260416-004","tieuDe":"QA-R2 Test tạo câu hỏi mới về quy trình đăng ký doanh nghiệp","linhVucId":"f29f7d36-8779-47e8-9afe-4e9f4d00d3e6","linhVucTen":"Hành chính","kenhTiepNhan":"TRUC_TIEP","trangThai":"TIEP_NHAN","tenNguoiGui":"Nguyễn Văn QA Test","nguoiXuLyId":null,"deadline":"2026-05-04T18:18:28.916Z","ngayTiepNhan":"2026-04-16T18:18:28.916Z","mucDoCanhBao":"BINH_THUONG","ngayTao":"2026-04-16T18:15:53.355Z"}],"meta":{"page":1,"pageSize":2,"total":8,"totalPages":4}}