{"success":true,"data":[{"id":"f5b17b14-a11e-4d75-9131-7129a5b9ee27","maHoiDap":"HD-20260417-012","tieuDe":"QA-R2 HD-029 BUG: NHT creates","linhVucId":"f29f7d36-8779-47e8-9afe-4e9f4d00d3e6","linhVucTen":"Hành chính","kenhTiepNhan":"CONG_PLQG","trangThai":"MOI","tenNguoiGui":"NHT","nguoiXuLyId":null,"deadline":"2026-05-05T08:03:04.337Z","ngayTiepNhan":null,"mucDoCanhBao":"BINH_THUONG","ngayTao":"2026-04-17T08:03:04.340Z"},{"id":"67caca55-9ead-4159-8ccb-35bbf9f8af0b","maHoiDap":"HD-20260417-011","tieuDe":"QA-R2 HD-027 DN API create","linhVucId":"f29f7d36-8779-47e8-9afe-4e9f4d00d3e6","linhVucTen":"Hành chính","kenhTiepNhan":"CONG_PLQG","trangThai":"MOI","tenNguoiGui":"DN User Test","nguoiXuLyId":null,"deadline":"2026-05-05T08:03:04.230Z","ngayTiepNhan":null,"mucDoCanhBao":"BINH_THUONG","ngayTao":"2026-04-17T08:03:04.232Z"},{"id":"780b77d6-e0f8-486a-94be-39607333f00d","maHoiDap":"HD-20260417-010","tieuDe":"t","linhVucId":"f29f7d36-8779-47e8-9afe-4e9f4d00d3e6","linhVucTen":"Hành chính","kenhTiepNhan":"TRUC_TIEP","trangThai":"MOI","tenNguoiGui":"x","nguoiXuLyId":null,"deadline":"2026-05-05T08:02:47.474Z","ngayTiepNhan":null,"mucDoCanhBao":"BINH_THUONG","ngayTao":"2026-04-17T08:02:47.477Z"}],"meta":{"page":1,"pageSize":3,"total":19,"totalPages":7}}
