{"success":true,"data":[{"id":"67caca55-9ead-4159-8ccb-35bbf9f8af0b","maHoiDap":"HD-20260417-011","tieuDe":"QA-R2 HD-027 DN API create","linhVucId":"f29f7d36-8779-47e8-9afe-4e9f4d00d3e6","linhVucTen":"Hành chính","kenhTiepNhan":"CONG_PLQG","trangThai":"MOI","tenNguoiGui":"DN User Test","nguoiXuLyId":null,"deadline":"2026-05-05T08:03:04.230Z","ngayTiepNhan":null,"mucDoCanhBao":"BINH_THUONG","ngayTao":"2026-04-17T08:03:04.232Z"},{"id":"780b77d6-e0f8-486a-94be-39607333f00d","maHoiDap":"HD-20260417-010","tieuDe":"t","linhVucId":"f29f7d36-8779-47e8-9afe-4e9f4d00d3e6","linhVucTen":"Hành chính","kenhTiepNhan":"TRUC_TIEP","trangThai":"MOI","tenNguoiGui":"x","nguoiXuLyId":null,"deadline":"2026-05-05T08:02:47.474Z","ngayTiepNhan":null,"mucDoCanhBao":"BINH_THUONG","ngayTao":"2026-04-17T08:02:47.477Z"},{"id":"8ea0f52e-58ee-48f3-934c-e5fd5dddd560","maHoiDap":"HD-20260417-009","tieuDe":"QA-R2 HD-024 BUG: QTHT can create","linhVucId":"f29f7d36-8779-47e8-9afe-4e9f4d00d3e6","linhVucTen":"Hành chính","kenhTiepNhan":"TRUC_TIEP","trangThai":"MOI","tenNguoiGui":"Q","nguoiXuLyId":null,"deadline":"2026-05-05T08:01:57.829Z","ngayTiepNhan":null,"mucDoCanhBao":"BINH_THUONG","ngayTao":"2026-04-17T08:01:57.831Z"},{"id":"51068360-9d7e-4599-8320-576d4ce138a2","maHoiDap":"HD-20260417-008","tieuDe":"QTHT try create","linhVucId":"f29f7d36-8779-47e8-9afe-4e9f4d00d3e6","linhVucTen":"Hành chính","kenhTiepNhan":"TRUC_TIEP","trangThai":"MOI","tenNguoiGui":"Q","nguoiXuLyId":null,"deadline":"2026-05-05T08:01:38.229Z","ngayTiepNhan":null,"mucDoCanhBao":"BINH_THUONG","ngayTao":"2026-04-17T08:01:38.233Z"},{"id":"6472b698-1453-456f-a8bf-c67da2fbf5ad","maHoiDap":"HD-20260417-007","tieuDe":"QA-R2 HD-023 Attach Test","linhVucId":"f29f7d36-8779-47e8-9afe-4e9f4d00d3e6","linhVucTen":"Hành chính","kenhTiepNhan":"TRUC_TIEP","trangThai":"DANG_XU_LY","tenNguoiGui":"QA Auto","nguoiXuLyId":"11111111-0001-4000-8000-000000000003","nguoiXuLyTen":"Cán bộ TW","deadline":"2026-05-05T08:00:28.779Z","ngayTiepNhan":"2026-04-17T08:00:28.779Z","mucDoCanhBao":"BINH_THUONG","ngayTao":"2026-04-17T08:00:28.698Z"}],"meta":{"page":1,"pageSize":5,"total":18,"totalPages":4}}
